…
\###Step3 For the city of Baltimore, MD, use the prop. test & pull the
estimated proportion and confidence intervals

``` r
Baltimore_df =
  Homicide_df %>% 
  filter(Homicide_df$city_state == "Baltimore, MD")
Baltimore_df
```

    ## # A tibble: 2,827 × 14
    ##    uid       repor…¹ victi…² victi…³ victi…⁴ victi…⁵ victi…⁶ city_…⁷ city  state
    ##    <chr>       <dbl> <chr>   <chr>   <chr>   <chr>   <fct>   <chr>   <chr> <fct>
    ##  1 Bal-0016…  2.01e7 NELSON  LEON    Black   17      Male    Baltim… Balt… MD   
    ##  2 Bal-0016…  2.01e7 GOLF    EDDIE   Black   26      Male    Baltim… Balt… MD   
    ##  3 Bal-0016…  2.01e7 MACKEN… THOMAS… Black   21      Male    Baltim… Balt… MD   
    ##  4 Bal-0016…  2.01e7 CANUPP  EDWARD… White   61      Male    Baltim… Balt… MD   
    ##  5 Bal-0016…  2.01e7 CUNNIN… MICHAEL Black   46      Male    Baltim… Balt… MD   
    ##  6 Bal-0016…  2.01e7 ALSTON  RAY WI… Black   27      Male    Baltim… Balt… MD   
    ##  7 Bal-0016…  2.01e7 HENDER… YULE A… Black   21      Male    Baltim… Balt… MD   
    ##  8 Bal-0016…  2.01e7 MCDOWE… MARCU   Black   16      Male    Baltim… Balt… MD   
    ##  9 Bal-0016…  2.01e7 GARDNER RODNEY… Black   21      Male    Baltim… Balt… MD   
    ## 10 Bal-0016…  2.01e7 BURNET… NELSENE Black   44      Female  Baltim… Balt… MD   
    ## # … with 2,817 more rows, 4 more variables: lat <dbl>, lon <dbl>,
    ## #   disposition <chr>, solved_or_not <chr>, and abbreviated variable names
    ## #   ¹​reported_date, ²​victim_last, ³​victim_first, ⁴​victim_race, ⁵​victim_age,
    ## #   ⁶​victim_sex, ⁷​city_state
…
\###Step4 run prop. test for each of the cities in this dataset

``` r
results_df = 
  cities_df %>% 
  mutate(test_results = map2(.x = unsolved_homicides, .y = total_homicides, ~prop.test(x = .x, n = .y)),
         tidy_results = map(test_results, broom::tidy)) %>% 
  select(-test_results) %>% 
  unnest(tidy_results) %>% 
  select(city_state, estimate, starts_with("conf"))
results_df
```

    ## # A tibble: 50 × 4
    ##    city_state       estimate conf.low conf.high
    ##    <chr>               <dbl>    <dbl>     <dbl>
    ##  1 Chicago, IL         0.736    0.724     0.747
    ##  2 Philadelphia, PA    0.448    0.430     0.466
    ##  3 Houston, TX         0.507    0.489     0.526
    ##  4 Baltimore, MD       0.646    0.628     0.663
    ##  5 Detroit, MI         0.588    0.569     0.608
    ##  6 Los Angeles, CA     0.490    0.469     0.511
    ##  7 St. Louis, MO       0.540    0.515     0.564
    ##  8 Dallas, TX          0.481    0.456     0.506
    ##  9 Memphis, TN         0.319    0.296     0.343
    ## 10 New Orleans, LA     0.649    0.623     0.673
    ## # … with 40 more rows
…
sim_results_df
```

    ## # A tibble: 35,000 × 4
    ##       mu iterate estimate p.value
    ##    <dbl>   <int>    <dbl>   <dbl>
    ##  1     0       1    0.412  0.629 
    ##  2     0       2    0.664  0.368 
    ##  3     0       3    0.551  0.534 
    ##  4     0       4    0.567  0.487 
    ##  5     0       5   -1.65   0.0599
    ##  6     0       6    1.19   0.229 
    ##  7     0       7    0.334  0.738 
    ##  8     0       8   -1.19   0.209 
    ##  9     0       9    0.122  0.887 
    ## 10     0      10    0.684  0.472 
    ## # … with 34,990 more rows
…
